:200000000152004001640040020B0140270C0140180D0140024501400146014002500140DD
:2000200011028D0DAB80EC048E0592029B01A60CA901AE01B002B201B408B604B701BE04D5
:20004000C040C105C5D1C720C823C9FFCAFFCBFFCDA0CF04D018D280D405D804D904DA042D
:20006000DB04DF01E040E2C0E440E540E6C0E8C0EAC0ECC0EEC00040090210221840191462
:200080001B80224029103020404048224901500259055A807102C001C208C405CA04CC04B7
:2000A000D001D208D60B5301D401AB0100010E01000B0B00000000000002020002000000B3
:00000001FF
